{
  "builds": [
    { "src": "api/*.js", "use": "@now/node" },
    { "src": "api/**/*.js", "use": "@now/node" },
    { "src": "next.config.js", "use": "@now/next" },
    { "src": "static", "use": "@now/static" }
  ],
  "env": {
    "AUTH0_CLIENT_SECRET": "@auth0_client_secret",
    "MONGO_DB": "@starter_mongo_db",
    "STRIPE_SECRET_KEY": "@test_stripe_secret_key",
    "STRIPE_SIGNING_SECRET": "@test_stripe_signing_secret",
    "UPLOAD_AWS_ACCESS_KEY_ID": "@upload_aws_access_key_id",
    "UPLOAD_AWS_SECRET_ACCESS_KEY": "@upload_aws_secret_access_key",
    "UPLOAD_ENDPOINT": "@upload_endpoint"
  },
  "name": "starter",
  "routes": [{ "src": "/api/(.*)", "dest": "/api/$1.js" }],
  "version": 2
}
